Counter: 3954
Time: 43s

Master Stack: 0x20000c78 - 0x20000c24 = 84 Byte
Watch:    0x200007e0 - 0x20000734  = 172 Byte
Counter:  0x2000016c - 0x200000a8 = 196 Byte
Key:    0x20000280 - 0x200001f0 = 144 Byte
Poti:    0x200006bc - 0x20000600 = 188 Byte
LED:    0x20000394 - 0x20000318 = 124 Byte
Mandelbrot:  0x200005a8 - 0x200004a8 = 256 Byte